info face="ComicSansMS-Bold" size=36 bold=0 italic=0 charset="" unicode=0 stretchH=100 smooth=1 aa=1 padding=0,0,0,0 spacing=2,2
common lineHeight=50 base=40 scaleW=512 scaleH=256 pages=1 packed=0
page id=0 file="comicw18-hd.png"
chars count=95
char id=36 x=2 y=2 width=25 height=40 xoffset=1 yoffset=9 xadvance=25 page=0 chnl=0 letter="$"
char id=106 x=29 y=2 width=17 height=40 xoffset=-2 yoffset=13 xadvance=14 page=0 chnl=0 letter="j"
char id=124 x=48 y=2 width=8 height=40 xoffset=5 yoffset=9 xadvance=15 page=0 chnl=0 letter="|"
char id=41 x=58 y=2 width=15 height=39 xoffset=0 yoffset=11 xadvance=13 page=0 chnl=0 letter=")"
char id=40 x=75 y=2 width=15 height=39 xoffset=0 yoffset=11 xadvance=13 page=0 chnl=0 letter="("
char id=81 x=92 y=2 width=34 height=38 xoffset=0 yoffset=12 xadvance=31 page=0 chnl=0 letter="Q"
char id=125 x=128 y=2 width=16 height=38 xoffset=-1 yoffset=11 xadvance=13 page=0 chnl=0 letter="}"
char id=123 x=146 y=2 width=16 height=38 xoffset=-1 yoffset=11 xadvance=13 page=0 chnl=0 letter="{"
char id=91 x=164 y=2 width=14 height=38 xoffset=1 yoffset=12 xadvance=13 page=0 chnl=0 letter="["
char id=93 x=180 y=2 width=14 height=38 xoffset=0 yoffset=12 xadvance=13 page=0 chnl=0 letter="]"
char id=64 x=196 y=2 width=34 height=35 xoffset=0 yoffset=10 xadvance=33 page=0 chnl=0 letter="@"
char id=102 x=232 y=2 width=20 height=34 xoffset=0 yoffset=11 xadvance=18 page=0 chnl=0 letter="f"
char id=37 x=254 y=2 width=30 height=33 xoffset=1 yoffset=10 xadvance=29 page=0 chnl=0 letter="%"
char id=71 x=286 y=2 width=27 height=33 xoffset=0 yoffset=11 xadvance=24 page=0 chnl=0 letter="G"
char id=74 x=315 y=2 width=26 height=33 xoffset=0 yoffset=12 xadvance=23 page=0 chnl=0 letter="J"
char id=69 x=343 y=2 width=23 height=33 xoffset=1 yoffset=11 xadvance=22 page=0 chnl=0 letter="E"
char id=70 x=368 y=2 width=22 height=33 xoffset=1 yoffset=11 xadvance=21 page=0 chnl=0 letter="F"
char id=112 x=392 y=2 width=21 height=33 xoffset=0 yoffset=20 xadvance=19 page=0 chnl=0 letter="p"
char id=104 x=415 y=2 width=21 height=33 xoffset=1 yoffset=11 xadvance=20 page=0 chnl=0 letter="h"
char id=47 x=438 y=2 width=20 height=33 xoffset=0 yoffset=11 xadvance=18 page=0 chnl=0 letter="/"
char id=92 x=460 y=2 width=19 height=33 xoffset=2 yoffset=12 xadvance=19 page=0 chnl=0 letter="\"
char id=33 x=481 y=2 width=8 height=33 xoffset=1 yoffset=11 xadvance=8 page=0 chnl=0 letter="!"
char id=87 x=2 y=44 width=39 height=32 xoffset=0 yoffset=12 xadvance=37 page=0 chnl=0 letter="W"
char id=77 x=43 y=44 width=34 height=32 xoffset=0 yoffset=12 xadvance=31 page=0 chnl=0 letter="M"
char id=35 x=79 y=44 width=33 height=32 xoffset=-1 yoffset=11 xadvance=30 page=0 chnl=0 letter="#"
char id=79 x=114 y=44 width=30 height=32 xoffset=0 yoffset=12 xadvance=28 page=0 chnl=0 letter="O"
char id=78 x=146 y=44 width=29 height=32 xoffset=1 yoffset=12 xadvance=29 page=0 chnl=0 letter="N"
char id=88 x=177 y=44 width=29 height=32 xoffset=-1 yoffset=12 xadvance=26 page=0 chnl=0 letter="X"
char id=72 x=208 y=44 width=28 height=32 xoffset=1 yoffset=12 xadvance=27 page=0 chnl=0 letter="H"
char id=85 x=238 y=44 width=27 height=32 xoffset=0 yoffset=12 xadvance=26 page=0 chnl=0 letter="U"
char id=89 x=267 y=44 width=26 height=32 xoffset=-1 yoffset=12 xadvance=22 page=0 chnl=0 letter="Y"
char id=86 x=295 y=44 width=26 height=32 xoffset=0 yoffset=12 xadvance=24 page=0 chnl=0 letter="V"
char id=38 x=323 y=44 width=25 height=32 xoffset=0 yoffset=12 xadvance=23 page=0 chnl=0 letter="&"
char id=68 x=350 y=44 width=25 height=32 xoffset=2 yoffset=12 xadvance=25 page=0 chnl=0 letter="D"
char id=66 x=377 y=44 width=23 height=32 xoffset=1 yoffset=11 xadvance=22 page=0 chnl=0 letter="B"
char id=121 x=402 y=44 width=23 height=32 xoffset=-1 yoffset=21 xadvance=19 page=0 chnl=0 letter="y"
char id=57 x=427 y=44 width=23 height=32 xoffset=0 yoffset=12 xadvance=21 page=0 chnl=0 letter="9"
char id=75 x=452 y=44 width=23 height=32 xoffset=1 yoffset=12 xadvance=21 page=0 chnl=0 letter="K"
char id=54 x=477 y=44 width=22 height=32 xoffset=1 yoffset=12 xadvance=21 page=0 chnl=0 letter="6"
char id=100 x=2 y=78 width=22 height=32 xoffset=0 yoffset=11 xadvance=21 page=0 chnl=0 letter="d"
char id=53 x=26 y=78 width=22 height=32 xoffset=1 yoffset=12 xadvance=21 page=0 chnl=0 letter="5"
char id=76 x=50 y=78 width=22 height=32 xoffset=0 yoffset=12 xadvance=19 page=0 chnl=0 letter="L"
char id=80 x=74 y=78 width=21 height=32 xoffset=0 yoffset=11 xadvance=19 page=0 chnl=0 letter="P"
char id=107 x=97 y=78 width=21 height=32 xoffset=1 yoffset=11 xadvance=19 page=0 chnl=0 letter="k"
char id=98 x=120 y=78 width=21 height=32 xoffset=1 yoffset=11 xadvance=21 page=0 chnl=0 letter="b"
char id=113 x=143 y=78 width=21 height=32 xoffset=-1 yoffset=20 xadvance=18 page=0 chnl=0 letter="q"
char id=63 x=166 y=78 width=20 height=32 xoffset=1 yoffset=12 xadvance=20 page=0 chnl=0 letter="?"
char id=108 x=188 y=78 width=9 height=32 xoffset=1 yoffset=11 xadvance=9 page=0 chnl=0 letter="l"
char id=84 x=199 y=78 width=29 height=31 xoffset=-1 yoffset=12 xadvance=25 page=0 chnl=0 letter="T"
char id=83 x=230 y=78 width=27 height=31 xoffset=0 yoffset=13 xadvance=24 page=0 chnl=0 letter="S"
char id=48 x=259 y=78 width=25 height=31 xoffset=-1 yoffset=12 xadvance=21 page=0 chnl=0 letter="0"
char id=52 x=286 y=78 width=25 height=31 xoffset=-1 yoffset=12 xadvance=21 page=0 chnl=0 letter="4"
char id=55 x=313 y=78 width=24 height=31 xoffset=0 yoffset=13 xadvance=21 page=0 chnl=0 letter="7"
char id=82 x=339 y=78 width=24 height=31 xoffset=1 yoffset=12 xadvance=23 page=0 chnl=0 letter="R"
char id=67 x=365 y=78 width=24 height=31 xoffset=0 yoffset=12 xadvance=22 page=0 chnl=0 letter="C"
char id=56 x=391 y=78 width=22 height=31 xoffset=1 yoffset=12 xadvance=21 page=0 chnl=0 letter="8"
char id=103 x=415 y=78 width=22 height=31 xoffset=-1 yoffset=21 xadvance=19 page=0 chnl=0 letter="g"
char id=50 x=439 y=78 width=22 height=31 xoffset=1 yoffset=12 xadvance=21 page=0 chnl=0 letter="2"
char id=51 x=463 y=78 width=21 height=31 xoffset=1 yoffset=12 xadvance=21 page=0 chnl=0 letter="3"
char id=90 x=2 y=112 width=28 height=30 xoffset=-1 yoffset=13 xadvance=24 page=0 chnl=0 letter="Z"
char id=65 x=32 y=112 width=26 height=30 xoffset=1 yoffset=13 xadvance=26 page=0 chnl=0 letter="A"
char id=73 x=60 y=112 width=22 height=30 xoffset=0 yoffset=13 xadvance=19 page=0 chnl=0 letter="I"
char id=49 x=84 y=112 width=16 height=30 xoffset=3 yoffset=12 xadvance=21 page=0 chnl=0 letter="1"
char id=105 x=102 y=112 width=9 height=30 xoffset=2 yoffset=13 xadvance=10 page=0 chnl=0 letter="i"
char id=116 x=113 y=112 width=19 height=29 xoffset=0 yoffset=15 xadvance=16 page=0 chnl=0 letter="t"
char id=59 x=134 y=112 width=10 height=27 xoffset=3 yoffset=19 xadvance=15 page=0 chnl=0 letter=";"
char id=109 x=146 y=112 width=29 height=25 xoffset=1 yoffset=20 xadvance=27 page=0 chnl=0 letter="m"
char id=110 x=177 y=112 width=21 height=24 xoffset=0 yoffset=20 xadvance=18 page=0 chnl=0 letter="n"
char id=99 x=200 y=112 width=20 height=24 xoffset=0 yoffset=20 xadvance=18 page=0 chnl=0 letter="c"
char id=117 x=222 y=112 width=20 height=24 xoffset=0 yoffset=20 xadvance=18 page=0 chnl=0 letter="u"
char id=115 x=244 y=112 width=19 height=24 xoffset=0 yoffset=20 xadvance=17 page=0 chnl=0 letter="s"
char id=119 x=265 y=112 width=27 height=23 xoffset=0 yoffset=21 xadvance=24 page=0 chnl=0 letter="w"
char id=120 x=294 y=112 width=24 height=23 xoffset=-1 yoffset=20 xadvance=21 page=0 chnl=0 letter="x"
char id=97 x=320 y=112 width=22 height=23 xoffset=0 yoffset=21 xadvance=20 page=0 chnl=0 letter="a"
char id=122 x=344 y=112 width=21 height=23 xoffset=0 yoffset=21 xadvance=19 page=0 chnl=0 letter="z"
char id=114 x=367 y=112 width=18 height=23 xoffset=1 yoffset=21 xadvance=17 page=0 chnl=0 letter="r"
char id=101 x=387 y=112 width=21 height=22 xoffset=0 yoffset=21 xadvance=20 page=0 chnl=0 letter="e"
char id=118 x=410 y=112 width=21 height=22 xoffset=-1 yoffset=21 xadvance=17 page=0 chnl=0 letter="v"
char id=111 x=433 y=112 width=20 height=22 xoffset=0 yoffset=21 xadvance=18 page=0 chnl=0 letter="o"
char id=58 x=455 y=112 width=9 height=21 xoffset=4 yoffset=19 xadvance=15 page=0 chnl=0 letter=":"
char id=62 x=466 y=112 width=17 height=20 xoffset=4 yoffset=19 xadvance=21 page=0 chnl=0 letter=">"
char id=60 x=485 y=112 width=16 height=19 xoffset=3 yoffset=20 xadvance=21 page=0 chnl=0 letter="<"
char id=42 x=2 y=144 width=21 height=18 xoffset=-1 yoffset=11 xadvance=19 page=0 chnl=0 letter="*"
char id=43 x=25 y=144 width=20 height=17 xoffset=2 yoffset=21 xadvance=21 page=0 chnl=0 letter="+"
char id=61 x=47 y=144 width=19 height=16 xoffset=2 yoffset=22 xadvance=21 page=0 chnl=0 letter="="
char id=34 x=68 y=144 width=17 height=15 xoffset=0 yoffset=11 xadvance=15 page=0 chnl=0 letter="""
char id=39 x=87 y=144 width=9 height=15 xoffset=4 yoffset=11 xadvance=15 page=0 chnl=0 letter="'"
char id=94 x=98 y=144 width=19 height=13 xoffset=2 yoffset=10 xadvance=21 page=0 chnl=0 letter="^"
char id=96 x=119 y=144 width=12 height=12 xoffset=1 yoffset=10 xadvance=20 page=0 chnl=0 letter="`"
char id=126 x=133 y=144 width=23 height=11 xoffset=0 yoffset=23 xadvance=21 page=0 chnl=0 letter="~"
char id=44 x=158 y=144 width=10 height=11 xoffset=3 yoffset=37 xadvance=15 page=0 chnl=0 letter=","
char id=45 x=170 y=144 width=17 height=8 xoffset=3 yoffset=27 xadvance=21 page=0 chnl=0 letter="-"
char id=46 x=189 y=144 width=9 height=8 xoffset=4 yoffset=36 xadvance=15 page=0 chnl=0 letter="."
char id=95 x=200 y=144 width=28 height=7 xoffset=-2 yoffset=42 xadvance=22 page=0 chnl=0 letter="_"
char id=32 x=230 y=144 width=0 height=0 xoffset=-105 yoffset=160 xadvance=15 page=0 chnl=0 letter="space"
