info face="A-Lolita-Scorned" size=100 bold=0 italic=0 charset="" unicode=0 stretchH=100 smooth=1 aa=1 padding=0,0,0,0 spacing=0,0
common lineHeight=115 base=91 scaleW=1024 scaleH=512 pages=1 packed=0
page id=0 file="fear1-hd.png"
chars count=95
char id=86 x=0 y=0 width=81 height=103 xoffset=-14 yoffset=7 xadvance=45 page=0 chnl=0 letter="V"
char id=87 x=81 y=0 width=110 height=102 xoffset=-14 yoffset=20 xadvance=77 page=0 chnl=0 letter="W"
char id=77 x=191 y=0 width=102 height=102 xoffset=-15 yoffset=14 xadvance=73 page=0 chnl=0 letter="M"
char id=123 x=293 y=0 width=33 height=100 xoffset=-3 yoffset=12 xadvance=33 page=0 chnl=0 letter="{"
char id=81 x=326 y=0 width=71 height=99 xoffset=-3 yoffset=19 xadvance=58 page=0 chnl=0 letter="Q"
char id=106 x=397 y=0 width=36 height=98 xoffset=-7 yoffset=19 xadvance=22 page=0 chnl=0 letter="j"
char id=75 x=433 y=0 width=99 height=96 xoffset=-15 yoffset=8 xadvance=62 page=0 chnl=0 letter="K"
char id=80 x=532 y=0 width=83 height=96 xoffset=-15 yoffset=8 xadvance=61 page=0 chnl=0 letter="P"
char id=124 x=615 y=0 width=16 height=96 xoffset=-1 yoffset=13 xadvance=10 page=0 chnl=0 letter="|"
char id=68 x=631 y=0 width=84 height=94 xoffset=-16 yoffset=13 xadvance=61 page=0 chnl=0 letter="D"
char id=100 x=715 y=0 width=53 height=94 xoffset=-2 yoffset=18 xadvance=40 page=0 chnl=0 letter="d"
char id=72 x=768 y=0 width=95 height=93 xoffset=-7 yoffset=13 xadvance=72 page=0 chnl=0 letter="H"
char id=76 x=863 y=0 width=81 height=93 xoffset=-17 yoffset=15 xadvance=55 page=0 chnl=0 letter="L"
char id=36 x=944 y=0 width=53 height=93 xoffset=-2 yoffset=11 xadvance=47 page=0 chnl=0 letter="$"
char id=90 x=0 y=103 width=77 height=92 xoffset=-8 yoffset=19 xadvance=54 page=0 chnl=0 letter="Z"
char id=64 x=77 y=103 width=74 height=92 xoffset=-2 yoffset=15 xadvance=66 page=0 chnl=0 letter="@"
char id=88 x=151 y=103 width=92 height=91 xoffset=-22 yoffset=18 xadvance=52 page=0 chnl=0 letter="X"
char id=69 x=243 y=103 width=87 height=91 xoffset=-15 yoffset=14 xadvance=60 page=0 chnl=0 letter="E"
char id=66 x=330 y=103 width=78 height=91 xoffset=-14 yoffset=8 xadvance=57 page=0 chnl=0 letter="B"
char id=71 x=408 y=103 width=73 height=91 xoffset=-3 yoffset=13 xadvance=60 page=0 chnl=0 letter="G"
char id=74 x=481 y=103 width=62 height=91 xoffset=-3 yoffset=18 xadvance=45 page=0 chnl=0 letter="J"
char id=78 x=543 y=103 width=87 height=90 xoffset=-14 yoffset=13 xadvance=61 page=0 chnl=0 letter="N"
char id=67 x=630 y=103 width=66 height=90 xoffset=-6 yoffset=14 xadvance=51 page=0 chnl=0 letter="C"
char id=40 x=696 y=103 width=44 height=90 xoffset=-2 yoffset=6 xadvance=37 page=0 chnl=0 letter="("
char id=41 x=740 y=103 width=43 height=90 xoffset=-2 yoffset=6 xadvance=37 page=0 chnl=0 letter=")"
char id=125 x=783 y=103 width=32 height=90 xoffset=-2 yoffset=12 xadvance=25 page=0 chnl=0 letter="}"
char id=85 x=815 y=103 width=79 height=89 xoffset=-9 yoffset=15 xadvance=60 page=0 chnl=0 letter="U"
char id=98 x=894 y=103 width=56 height=89 xoffset=-13 yoffset=21 xadvance=38 page=0 chnl=0 letter="b"
char id=48 x=950 y=103 width=48 height=89 xoffset=-2 yoffset=22 xadvance=41 page=0 chnl=0 letter="0"
char id=56 x=0 y=195 width=53 height=88 xoffset=-2 yoffset=21 xadvance=42 page=0 chnl=0 letter="8"
char id=51 x=53 y=195 width=48 height=88 xoffset=-1 yoffset=20 xadvance=42 page=0 chnl=0 letter="3"
char id=49 x=101 y=195 width=46 height=88 xoffset=-2 yoffset=19 xadvance=42 page=0 chnl=0 letter="1"
char id=89 x=147 y=195 width=85 height=87 xoffset=-24 yoffset=16 xadvance=47 page=0 chnl=0 letter="Y"
char id=82 x=232 y=195 width=82 height=87 xoffset=-10 yoffset=16 xadvance=63 page=0 chnl=0 letter="R"
char id=104 x=314 y=195 width=64 height=87 xoffset=-5 yoffset=24 xadvance=53 page=0 chnl=0 letter="h"
char id=38 x=378 y=195 width=63 height=87 xoffset=-1 yoffset=17 xadvance=57 page=0 chnl=0 letter="&"
char id=83 x=441 y=195 width=62 height=87 xoffset=-5 yoffset=18 xadvance=45 page=0 chnl=0 letter="S"
char id=113 x=503 y=195 width=55 height=87 xoffset=0 yoffset=30 xadvance=47 page=0 chnl=0 letter="q"
char id=57 x=558 y=195 width=46 height=87 xoffset=-2 yoffset=19 xadvance=39 page=0 chnl=0 letter="9"
char id=73 x=604 y=195 width=53 height=86 xoffset=-6 yoffset=13 xadvance=33 page=0 chnl=0 letter="I"
char id=52 x=657 y=195 width=50 height=86 xoffset=-2 yoffset=25 xadvance=43 page=0 chnl=0 letter="4"
char id=54 x=707 y=195 width=47 height=86 xoffset=-2 yoffset=22 xadvance=40 page=0 chnl=0 letter="6"
char id=53 x=754 y=195 width=46 height=86 xoffset=-2 yoffset=22 xadvance=40 page=0 chnl=0 letter="5"
char id=108 x=800 y=195 width=40 height=86 xoffset=-4 yoffset=20 xadvance=28 page=0 chnl=0 letter="l"
char id=84 x=840 y=195 width=69 height=85 xoffset=-6 yoffset=17 xadvance=56 page=0 chnl=0 letter="T"
char id=112 x=909 y=195 width=55 height=85 xoffset=-3 yoffset=33 xadvance=47 page=0 chnl=0 letter="p"
char id=91 x=964 y=195 width=32 height=85 xoffset=-1 yoffset=24 xadvance=25 page=0 chnl=0 letter="["
char id=65 x=0 y=283 width=85 height=84 xoffset=-11 yoffset=17 xadvance=61 page=0 chnl=0 letter="A"
char id=37 x=85 y=283 width=49 height=84 xoffset=-2 yoffset=21 xadvance=43 page=0 chnl=0 letter="%"
char id=103 x=134 y=283 width=47 height=84 xoffset=-2 yoffset=34 xadvance=38 page=0 chnl=0 letter="g"
char id=70 x=181 y=283 width=77 height=82 xoffset=-9 yoffset=14 xadvance=61 page=0 chnl=0 letter="F"
char id=102 x=258 y=283 width=43 height=82 xoffset=-2 yoffset=19 xadvance=36 page=0 chnl=0 letter="f"
char id=105 x=301 y=283 width=38 height=82 xoffset=-6 yoffset=26 xadvance=25 page=0 chnl=0 letter="i"
char id=79 x=339 y=283 width=73 height=80 xoffset=-5 yoffset=20 xadvance=57 page=0 chnl=0 letter="O"
char id=50 x=412 y=283 width=44 height=80 xoffset=-2 yoffset=22 xadvance=38 page=0 chnl=0 letter="2"
char id=107 x=456 y=283 width=61 height=79 xoffset=-10 yoffset=25 xadvance=45 page=0 chnl=0 letter="k"
char id=121 x=517 y=283 width=53 height=79 xoffset=-2 yoffset=38 xadvance=46 page=0 chnl=0 letter="y"
char id=93 x=570 y=283 width=32 height=77 xoffset=-2 yoffset=25 xadvance=25 page=0 chnl=0 letter="]"
char id=35 x=602 y=283 width=57 height=75 xoffset=-1 yoffset=16 xadvance=50 page=0 chnl=0 letter="#"
char id=92 x=659 y=283 width=43 height=75 xoffset=-2 yoffset=21 xadvance=37 page=0 chnl=0 letter="\"
char id=55 x=702 y=283 width=43 height=73 xoffset=-3 yoffset=22 xadvance=35 page=0 chnl=0 letter="7"
char id=63 x=745 y=283 width=39 height=73 xoffset=-2 yoffset=20 xadvance=31 page=0 chnl=0 letter="?"
char id=59 x=784 y=283 width=27 height=72 xoffset=-3 yoffset=24 xadvance=27 page=0 chnl=0 letter=";"
char id=47 x=811 y=283 width=34 height=71 xoffset=-3 yoffset=25 xadvance=25 page=0 chnl=0 letter="/"
char id=33 x=845 y=283 width=20 height=71 xoffset=-1 yoffset=22 xadvance=15 page=0 chnl=0 letter="!"
char id=116 x=865 y=283 width=40 height=69 xoffset=-8 yoffset=27 xadvance=27 page=0 chnl=0 letter="t"
char id=120 x=905 y=283 width=58 height=66 xoffset=-3 yoffset=44 xadvance=47 page=0 chnl=0 letter="x"
char id=115 x=963 y=283 width=37 height=66 xoffset=-1 yoffset=42 xadvance=32 page=0 chnl=0 letter="s"
char id=101 x=0 y=367 width=49 height=65 xoffset=-2 yoffset=44 xadvance=37 page=0 chnl=0 letter="e"
char id=111 x=49 y=367 width=47 height=65 xoffset=-2 yoffset=42 xadvance=40 page=0 chnl=0 letter="o"
char id=119 x=96 y=367 width=75 height=64 xoffset=-12 yoffset=42 xadvance=55 page=0 chnl=0 letter="w"
char id=110 x=171 y=367 width=59 height=64 xoffset=-4 yoffset=43 xadvance=49 page=0 chnl=0 letter="n"
char id=122 x=230 y=367 width=46 height=64 xoffset=-2 yoffset=43 xadvance=38 page=0 chnl=0 letter="z"
char id=117 x=276 y=367 width=62 height=62 xoffset=-3 yoffset=42 xadvance=49 page=0 chnl=0 letter="u"
char id=109 x=338 y=367 width=83 height=61 xoffset=-5 yoffset=44 xadvance=70 page=0 chnl=0 letter="m"
char id=97 x=421 y=367 width=51 height=61 xoffset=-3 yoffset=43 xadvance=41 page=0 chnl=0 letter="a"
char id=99 x=472 y=367 width=42 height=60 xoffset=-1 yoffset=42 xadvance=36 page=0 chnl=0 letter="c"
char id=118 x=514 y=367 width=53 height=59 xoffset=-7 yoffset=48 xadvance=42 page=0 chnl=0 letter="v"
char id=114 x=567 y=367 width=46 height=58 xoffset=-4 yoffset=45 xadvance=38 page=0 chnl=0 letter="r"
char id=58 x=613 y=367 width=21 height=57 xoffset=0 yoffset=36 xadvance=15 page=0 chnl=0 letter=":"
char id=43 x=634 y=367 width=52 height=52 xoffset=-2 yoffset=32 xadvance=46 page=0 chnl=0 letter="+"
char id=60 x=686 y=367 width=31 height=51 xoffset=-2 yoffset=32 xadvance=24 page=0 chnl=0 letter="<"
char id=62 x=717 y=367 width=31 height=51 xoffset=-1 yoffset=32 xadvance=25 page=0 chnl=0 letter=">"
char id=42 x=748 y=367 width=36 height=40 xoffset=2 yoffset=21 xadvance=35 page=0 chnl=0 letter="*"
char id=44 x=784 y=367 width=23 height=39 xoffset=-2 yoffset=71 xadvance=16 page=0 chnl=0 letter=","
char id=45 x=807 y=367 width=28 height=35 xoffset=-2 yoffset=44 xadvance=21 page=0 chnl=0 letter="-"
char id=126 x=835 y=367 width=40 height=34 xoffset=-2 yoffset=21 xadvance=33 page=0 chnl=0 letter="~"
char id=95 x=875 y=367 width=76 height=31 xoffset=5 yoffset=80 xadvance=75 page=0 chnl=0 letter="_"
char id=96 x=951 y=367 width=21 height=29 xoffset=0 yoffset=19 xadvance=16 page=0 chnl=0 letter="`"
char id=39 x=972 y=367 width=20 height=29 xoffset=-1 yoffset=18 xadvance=14 page=0 chnl=0 letter="'"
char id=34 x=0 y=432 width=34 height=27 xoffset=-2 yoffset=18 xadvance=26 page=0 chnl=0 letter="""
char id=61 x=34 y=432 width=38 height=26 xoffset=-2 yoffset=47 xadvance=32 page=0 chnl=0 letter="="
char id=46 x=72 y=432 width=19 height=22 xoffset=-3 yoffset=72 xadvance=12 page=0 chnl=0 letter="."
char id=94 x=91 y=432 width=36 height=19 xoffset=-2 yoffset=19 xadvance=28 page=0 chnl=0 letter="^"
char id=32 x=127 y=432 width=0 height=0 xoffset=-93 yoffset=211 xadvance=27 page=0 chnl=0 letter="space"
